<?xml version="1.0" encoding="UTF-8"?><svg xmlns="http://www.w3.org/2000/svg" xmlns:xlink="http://www.w3.org/1999/xlink" fill-opacity="1" color-rendering="auto" color-interpolation="auto" text-rendering="auto" stroke="black" stroke-linecap="square" width="740" stroke-miterlimit="10" shape-rendering="auto" stroke-opacity="1" fill="black" stroke-dasharray="none" font-weight="normal" stroke-width="1" height="396" font-family="'Dialog'" font-style="normal" stroke-linejoin="miter" font-size="12px" stroke-dashoffset="0" image-rendering="auto">
  <!--Generated by ySVG 2.5-->
  <defs id="genericDefs"/>
  <g>
    <defs id="defs1">
      <clipPath clipPathUnits="userSpaceOnUse" id="clipPath1">
        <path d="M0 0 L740 0 L740 396 L0 396 L0 0 Z"/>
      </clipPath>
      <clipPath clipPathUnits="userSpaceOnUse" id="clipPath2">
        <path d="M-352 382 L388 382 L388 778 L-352 778 L-352 382 Z"/>
      </clipPath>
      <clipPath clipPathUnits="userSpaceOnUse" id="clipPath3">
        <path d="M220 439 L220 467 L320 467 L320 439 Z"/>
      </clipPath>
      <clipPath clipPathUnits="userSpaceOnUse" id="clipPath4">
        <path d="M54 734 L54 762 L138 762 L138 734 Z"/>
      </clipPath>
      <clipPath clipPathUnits="userSpaceOnUse" id="clipPath5">
        <path d="M210 665 L210 693 L371 693 L371 665 Z"/>
      </clipPath>
      <clipPath clipPathUnits="userSpaceOnUse" id="clipPath6">
        <path d="M138 539 L138 567 L195 567 L195 539 Z"/>
      </clipPath>
      <clipPath clipPathUnits="userSpaceOnUse" id="clipPath7">
        <path d="M-16 539 L-16 567 L60 567 L60 539 Z"/>
      </clipPath>
      <clipPath clipPathUnits="userSpaceOnUse" id="clipPath8">
        <path d="M71 539 L71 567 L121 567 L121 539 Z"/>
      </clipPath>
      <clipPath clipPathUnits="userSpaceOnUse" id="clipPath9">
        <path d="M46 597 L46 625 L146 625 L146 597 Z"/>
      </clipPath>
      <clipPath clipPathUnits="userSpaceOnUse" id="clipPath10">
        <path d="M46 665 L46 693 L146 693 L146 665 Z"/>
      </clipPath>
      <clipPath clipPathUnits="userSpaceOnUse" id="clipPath11">
        <path d="M-217 597 L-217 625 L-36 625 L-36 597 Z"/>
      </clipPath>
      <clipPath clipPathUnits="userSpaceOnUse" id="clipPath12">
        <path d="M162 597 L162 625 L303 625 L303 597 Z"/>
      </clipPath>
      <clipPath clipPathUnits="userSpaceOnUse" id="clipPath13">
        <path d="M226 538 L226 566 L326 566 L326 538 Z"/>
      </clipPath>
      <clipPath clipPathUnits="userSpaceOnUse" id="clipPath14">
        <path d="M-203 665 L-203 693 L-49 693 L-49 665 Z"/>
      </clipPath>
      <clipPath clipPathUnits="userSpaceOnUse" id="clipPath15">
        <path d="M-197 734 L-197 762 L-56 762 L-56 734 Z"/>
      </clipPath>
      <clipPath clipPathUnits="userSpaceOnUse" id="clipPath16">
        <path d="M-159 476 L-159 504 L-59 504 L-59 476 Z"/>
      </clipPath>
      <clipPath clipPathUnits="userSpaceOnUse" id="clipPath17">
        <path d="M-89 439 L-89 467 L11 467 L11 439 Z"/>
      </clipPath>
      <clipPath clipPathUnits="userSpaceOnUse" id="clipPath18">
        <path d="M-185 514 L-185 542 L-122 542 L-122 514 Z"/>
      </clipPath>
      <clipPath clipPathUnits="userSpaceOnUse" id="clipPath19">
        <path d="M-217 552 L-217 580 L-154 580 L-154 552 Z"/>
      </clipPath>
    </defs>
    <g fill="rgb(255,204,0)" text-rendering="geometricPrecision" shape-rendering="geometricPrecision" transform="matrix(1,0,0,1,352,-382)" stroke="rgb(255,204,0)">
      <rect x="221" width="98" height="26" y="440" clip-path="url(#clipPath2)" stroke="none"/>
    </g>
    <g fill="yellow" text-rendering="geometricPrecision" shape-rendering="geometricPrecision" transform="matrix(1,0,0,1,352,-382)" stroke="yellow">
      <rect x="220" width="1" height="28" y="439" clip-path="url(#clipPath2)" stroke="none"/>
      <rect x="221" width="98" height="1" y="439" clip-path="url(#clipPath2)" stroke="none"/>
      <rect x="221" y="466" clip-path="url(#clipPath2)" fill="rgb(178,142,0)" width="99" height="1" stroke="none"/>
      <rect x="319" y="439" clip-path="url(#clipPath2)" fill="rgb(178,142,0)" width="1" height="27" stroke="none"/>
    </g>
    <g font-size="13px" stroke-linecap="butt" transform="matrix(1,0,0,1,352,-382)" text-rendering="geometricPrecision" font-family="sans-serif" shape-rendering="geometricPrecision" font-weight="bold" stroke-miterlimit="1.45">
      <text x="242.1378" xml:space="preserve" y="456.2245" clip-path="url(#clipPath3)" stroke="none">Feature</text>
    </g>
    <g fill="rgb(255,204,0)" text-rendering="geometricPrecision" shape-rendering="geometricPrecision" transform="matrix(1,0,0,1,352,-382)" stroke="rgb(255,204,0)">
      <rect x="55" width="82" height="26" y="735" clip-path="url(#clipPath2)" stroke="none"/>
      <rect x="54" y="734" clip-path="url(#clipPath2)" fill="yellow" width="1" height="28" stroke="none"/>
      <rect x="55" y="734" clip-path="url(#clipPath2)" fill="yellow" width="82" height="1" stroke="none"/>
      <rect x="55" y="761" clip-path="url(#clipPath2)" fill="rgb(178,142,0)" width="83" height="1" stroke="none"/>
      <rect x="137" y="734" clip-path="url(#clipPath2)" fill="rgb(178,142,0)" width="1" height="27" stroke="none"/>
    </g>
    <g font-size="13px" stroke-linecap="butt" transform="matrix(1,0,0,1,352,-382)" text-rendering="geometricPrecision" font-family="sans-serif" shape-rendering="geometricPrecision" font-weight="bold" stroke-miterlimit="1.45">
      <text x="65.6224" xml:space="preserve" y="751.8291" clip-path="url(#clipPath4)" stroke="none">ExonList</text>
    </g>
    <g fill="rgb(255,204,0)" text-rendering="geometricPrecision" shape-rendering="geometricPrecision" transform="matrix(1,0,0,1,352,-382)" stroke="rgb(255,204,0)">
      <rect x="211" width="159" height="26" y="666" clip-path="url(#clipPath2)" stroke="none"/>
      <rect x="210" y="665" clip-path="url(#clipPath2)" fill="yellow" width="1" height="28" stroke="none"/>
      <rect x="211" y="665" clip-path="url(#clipPath2)" fill="yellow" width="159" height="1" stroke="none"/>
      <rect x="211" y="692" clip-path="url(#clipPath2)" fill="rgb(178,142,0)" width="160" height="1" stroke="none"/>
      <rect x="370" y="665" clip-path="url(#clipPath2)" fill="rgb(178,142,0)" width="1" height="27" stroke="none"/>
    </g>
    <g font-size="13px" stroke-linecap="butt" transform="matrix(1,0,0,1,352,-382)" text-rendering="geometricPrecision" font-family="sans-serif" shape-rendering="geometricPrecision" font-weight="bold" stroke-miterlimit="1.45">
      <text x="219.769" xml:space="preserve" y="682.9828" clip-path="url(#clipPath5)" stroke="none">FeatureProvenance</text>
    </g>
    <g fill="rgb(255,204,0)" text-rendering="geometricPrecision" shape-rendering="geometricPrecision" transform="matrix(1,0,0,1,352,-382)" stroke="rgb(255,204,0)">
      <rect x="139" width="55" height="26" y="540" clip-path="url(#clipPath2)" stroke="none"/>
      <rect x="138" y="539" clip-path="url(#clipPath2)" fill="yellow" width="1" height="28" stroke="none"/>
      <rect x="139" y="539" clip-path="url(#clipPath2)" fill="yellow" width="55" height="1" stroke="none"/>
      <rect x="139" y="566" clip-path="url(#clipPath2)" fill="rgb(178,142,0)" width="56" height="1" stroke="none"/>
      <rect x="194" y="539" clip-path="url(#clipPath2)" fill="rgb(178,142,0)" width="1" height="27" stroke="none"/>
    </g>
    <g font-size="13px" stroke-linecap="butt" transform="matrix(1,0,0,1,352,-382)" text-rendering="geometricPrecision" font-family="sans-serif" shape-rendering="geometricPrecision" font-weight="bold" stroke-miterlimit="1.45">
      <text x="150.1399" xml:space="preserve" y="556.2911" clip-path="url(#clipPath6)" stroke="none">XRef</text>
    </g>
    <g fill="rgb(255,204,0)" text-rendering="geometricPrecision" shape-rendering="geometricPrecision" transform="matrix(1,0,0,1,352,-382)" stroke="rgb(255,204,0)">
      <rect x="-15" width="74" height="26" y="540" clip-path="url(#clipPath2)" stroke="none"/>
      <rect x="-16" y="539" clip-path="url(#clipPath2)" fill="yellow" width="1" height="28" stroke="none"/>
      <rect x="-15" y="539" clip-path="url(#clipPath2)" fill="yellow" width="74" height="1" stroke="none"/>
      <rect x="-15" y="566" clip-path="url(#clipPath2)" fill="rgb(178,142,0)" width="75" height="1" stroke="none"/>
      <rect x="59" y="539" clip-path="url(#clipPath2)" fill="rgb(178,142,0)" width="1" height="27" stroke="none"/>
    </g>
    <g font-size="13px" stroke-linecap="butt" transform="matrix(1,0,0,1,352,-382)" text-rendering="geometricPrecision" font-family="sans-serif" shape-rendering="geometricPrecision" font-weight="bold" stroke-miterlimit="1.45">
      <text x="-7.6067" xml:space="preserve" y="556.2911" clip-path="url(#clipPath7)" stroke="none">Citation</text>
    </g>
    <g fill="rgb(255,204,0)" text-rendering="geometricPrecision" shape-rendering="geometricPrecision" transform="matrix(1,0,0,1,352,-382)" stroke="rgb(255,204,0)">
      <rect x="72" width="48" height="26" y="540" clip-path="url(#clipPath2)" stroke="none"/>
      <rect x="71" y="539" clip-path="url(#clipPath2)" fill="yellow" width="1" height="28" stroke="none"/>
      <rect x="72" y="539" clip-path="url(#clipPath2)" fill="yellow" width="48" height="1" stroke="none"/>
      <rect x="72" y="566" clip-path="url(#clipPath2)" fill="rgb(178,142,0)" width="49" height="1" stroke="none"/>
      <rect x="120" y="539" clip-path="url(#clipPath2)" fill="rgb(178,142,0)" width="1" height="27" stroke="none"/>
    </g>
    <g font-size="13px" stroke-linecap="butt" transform="matrix(1,0,0,1,352,-382)" text-rendering="geometricPrecision" font-family="sans-serif" shape-rendering="geometricPrecision" font-weight="bold" stroke-miterlimit="1.45">
      <text x="79.273" xml:space="preserve" y="556.2911" clip-path="url(#clipPath8)" stroke="none">Note</text>
    </g>
    <g fill="rgb(255,204,0)" text-rendering="geometricPrecision" shape-rendering="geometricPrecision" transform="matrix(1,0,0,1,352,-382)" stroke="rgb(255,204,0)">
      <rect x="47" width="98" height="26" y="598" clip-path="url(#clipPath2)" stroke="none"/>
      <rect x="46" y="597" clip-path="url(#clipPath2)" fill="yellow" width="1" height="28" stroke="none"/>
      <rect x="47" y="597" clip-path="url(#clipPath2)" fill="yellow" width="98" height="1" stroke="none"/>
      <rect x="47" y="624" clip-path="url(#clipPath2)" fill="rgb(178,142,0)" width="99" height="1" stroke="none"/>
      <rect x="145" y="597" clip-path="url(#clipPath2)" fill="rgb(178,142,0)" width="1" height="27" stroke="none"/>
    </g>
    <g font-size="13px" stroke-linecap="butt" transform="matrix(1,0,0,1,352,-382)" text-rendering="geometricPrecision" font-family="sans-serif" shape-rendering="geometricPrecision" font-weight="bold" stroke-miterlimit="1.45">
      <text x="65.0289" xml:space="preserve" y="614.2911" clip-path="url(#clipPath9)" stroke="none">Qualifier</text>
    </g>
    <g fill="rgb(255,204,0)" text-rendering="geometricPrecision" shape-rendering="geometricPrecision" transform="matrix(1,0,0,1,352,-382)" stroke="rgb(255,204,0)">
      <rect x="47" width="98" height="26" y="666" clip-path="url(#clipPath2)" stroke="none"/>
      <rect x="46" y="665" clip-path="url(#clipPath2)" fill="yellow" width="1" height="28" stroke="none"/>
      <rect x="47" y="665" clip-path="url(#clipPath2)" fill="yellow" width="98" height="1" stroke="none"/>
      <rect x="47" y="692" clip-path="url(#clipPath2)" fill="rgb(178,142,0)" width="99" height="1" stroke="none"/>
      <rect x="145" y="665" clip-path="url(#clipPath2)" fill="rgb(178,142,0)" width="1" height="27" stroke="none"/>
    </g>
    <g font-size="13px" stroke-linecap="butt" transform="matrix(1,0,0,1,352,-382)" text-rendering="geometricPrecision" font-family="sans-serif" shape-rendering="geometricPrecision" font-weight="bold" stroke-miterlimit="1.45">
      <text x="53.711" xml:space="preserve" y="682.9828" clip-path="url(#clipPath10)" stroke="none">Provenance</text>
    </g>
    <g fill="rgb(255,204,0)" text-rendering="geometricPrecision" shape-rendering="geometricPrecision" transform="matrix(1,0,0,1,352,-382)" stroke="rgb(255,204,0)">
      <rect x="-216" width="179" height="26" y="598" clip-path="url(#clipPath2)" stroke="none"/>
      <rect x="-217" y="597" clip-path="url(#clipPath2)" fill="yellow" width="1" height="28" stroke="none"/>
      <rect x="-216" y="597" clip-path="url(#clipPath2)" fill="yellow" width="179" height="1" stroke="none"/>
      <rect x="-216" y="624" clip-path="url(#clipPath2)" fill="rgb(178,142,0)" width="180" height="1" stroke="none"/>
      <rect x="-37" y="597" clip-path="url(#clipPath2)" fill="rgb(178,142,0)" width="1" height="27" stroke="none"/>
    </g>
    <g font-size="13px" stroke-linecap="butt" transform="matrix(1,0,0,1,352,-382)" text-rendering="geometricPrecision" font-family="sans-serif" shape-rendering="geometricPrecision" font-weight="bold" stroke-miterlimit="1.45">
      <text x="-209.9238" xml:space="preserve" y="614.2911" clip-path="url(#clipPath11)" stroke="none">ProvenanceAnnotation</text>
    </g>
    <g fill="rgb(255,204,0)" text-rendering="geometricPrecision" shape-rendering="geometricPrecision" transform="matrix(1,0,0,1,352,-382)" stroke="rgb(255,204,0)">
      <rect x="163" width="139" height="26" y="598" clip-path="url(#clipPath2)" stroke="none"/>
      <rect x="162" y="597" clip-path="url(#clipPath2)" fill="yellow" width="1" height="28" stroke="none"/>
      <rect x="163" y="597" clip-path="url(#clipPath2)" fill="yellow" width="139" height="1" stroke="none"/>
      <rect x="163" y="624" clip-path="url(#clipPath2)" fill="rgb(178,142,0)" width="140" height="1" stroke="none"/>
      <rect x="302" y="597" clip-path="url(#clipPath2)" fill="rgb(178,142,0)" width="1" height="27" stroke="none"/>
    </g>
    <g font-size="13px" stroke-linecap="butt" transform="matrix(1,0,0,1,352,-382)" text-rendering="geometricPrecision" font-family="sans-serif" shape-rendering="geometricPrecision" font-weight="bold" stroke-miterlimit="1.45">
      <text x="172.5576" xml:space="preserve" y="614.2911" clip-path="url(#clipPath12)" stroke="none">XRefProvenance</text>
    </g>
    <g fill="rgb(255,204,0)" text-rendering="geometricPrecision" shape-rendering="geometricPrecision" transform="matrix(1,0,0,1,352,-382)" stroke="rgb(255,204,0)">
      <rect x="227" width="98" height="26" y="539" clip-path="url(#clipPath2)" stroke="none"/>
      <rect x="226" y="538" clip-path="url(#clipPath2)" fill="yellow" width="1" height="28" stroke="none"/>
      <rect x="227" y="538" clip-path="url(#clipPath2)" fill="yellow" width="98" height="1" stroke="none"/>
      <rect x="227" y="565" clip-path="url(#clipPath2)" fill="rgb(178,142,0)" width="99" height="1" stroke="none"/>
      <rect x="325" y="538" clip-path="url(#clipPath2)" fill="rgb(178,142,0)" width="1" height="27" stroke="none"/>
    </g>
    <g font-size="13px" stroke-linecap="butt" transform="matrix(1,0,0,1,352,-382)" text-rendering="geometricPrecision" font-family="sans-serif" shape-rendering="geometricPrecision" font-weight="bold" stroke-miterlimit="1.45">
      <text x="241.7917" xml:space="preserve" y="555.9305" clip-path="url(#clipPath13)" stroke="none">Database</text>
    </g>
    <g fill="rgb(255,204,0)" text-rendering="geometricPrecision" shape-rendering="geometricPrecision" transform="matrix(1,0,0,1,352,-382)" stroke="rgb(255,204,0)">
      <rect x="-202" width="152" height="26" y="666" clip-path="url(#clipPath2)" stroke="none"/>
      <rect x="-203" y="665" clip-path="url(#clipPath2)" fill="yellow" width="1" height="28" stroke="none"/>
      <rect x="-202" y="665" clip-path="url(#clipPath2)" fill="yellow" width="152" height="1" stroke="none"/>
      <rect x="-202" y="692" clip-path="url(#clipPath2)" fill="rgb(178,142,0)" width="153" height="1" stroke="none"/>
      <rect x="-50" y="665" clip-path="url(#clipPath2)" fill="rgb(178,142,0)" width="1" height="27" stroke="none"/>
    </g>
    <g font-size="13px" stroke-linecap="butt" transform="matrix(1,0,0,1,352,-382)" text-rendering="geometricPrecision" font-family="sans-serif" shape-rendering="geometricPrecision" font-weight="bold" stroke-miterlimit="1.45">
      <text x="-194.4578" xml:space="preserve" y="682.9828" clip-path="url(#clipPath14)" stroke="none">AnnotationLinkSet</text>
    </g>
    <g fill="rgb(255,204,0)" text-rendering="geometricPrecision" shape-rendering="geometricPrecision" transform="matrix(1,0,0,1,352,-382)" stroke="rgb(255,204,0)">
      <rect x="-196" width="139" height="26" y="735" clip-path="url(#clipPath2)" stroke="none"/>
      <rect x="-197" y="734" clip-path="url(#clipPath2)" fill="yellow" width="1" height="28" stroke="none"/>
      <rect x="-196" y="734" clip-path="url(#clipPath2)" fill="yellow" width="139" height="1" stroke="none"/>
      <rect x="-196" y="761" clip-path="url(#clipPath2)" fill="rgb(178,142,0)" width="140" height="1" stroke="none"/>
      <rect x="-57" y="734" clip-path="url(#clipPath2)" fill="rgb(178,142,0)" width="1" height="27" stroke="none"/>
    </g>
    <g font-size="13px" stroke-linecap="butt" transform="matrix(1,0,0,1,352,-382)" text-rendering="geometricPrecision" font-family="sans-serif" shape-rendering="geometricPrecision" font-weight="bold" stroke-miterlimit="1.45">
      <text x="-190.1858" xml:space="preserve" y="751.8291" clip-path="url(#clipPath15)" stroke="none">AnnotationResult</text>
    </g>
    <g fill="rgb(255,204,0)" text-rendering="geometricPrecision" shape-rendering="geometricPrecision" transform="matrix(1,0,0,1,352,-382)" stroke="rgb(255,204,0)">
      <rect x="259.3924" width="63.8864" height="30" y="732.7622" clip-path="url(#clipPath2)" stroke="none"/>
    </g>
    <g text-rendering="geometricPrecision" stroke-miterlimit="1.45" shape-rendering="geometricPrecision" font-family="sans-serif" transform="matrix(1,0,0,1,352,-382)" stroke-linecap="butt">
      <text x="265.7097" xml:space="preserve" y="751.9165" clip-path="url(#clipPath2)" stroke="none">Property</text>
      <rect fill="none" x="259.3924" width="63.8864" height="30" y="732.7622" clip-path="url(#clipPath2)"/>
    </g>
    <g fill="rgb(255,204,0)" text-rendering="geometricPrecision" shape-rendering="geometricPrecision" transform="matrix(1,0,0,1,352,-382)" stroke="rgb(255,204,0)">
      <rect x="-158" width="98" height="26" y="477" clip-path="url(#clipPath2)" stroke="none"/>
      <rect x="-159" y="476" clip-path="url(#clipPath2)" fill="yellow" width="1" height="28" stroke="none"/>
      <rect x="-158" y="476" clip-path="url(#clipPath2)" fill="yellow" width="98" height="1" stroke="none"/>
      <rect x="-158" y="503" clip-path="url(#clipPath2)" fill="rgb(178,142,0)" width="99" height="1" stroke="none"/>
      <rect x="-60" y="476" clip-path="url(#clipPath2)" fill="rgb(178,142,0)" width="1" height="27" stroke="none"/>
    </g>
    <g font-size="13px" stroke-linecap="butt" transform="matrix(1,0,0,1,352,-382)" text-rendering="geometricPrecision" font-family="sans-serif" shape-rendering="geometricPrecision" font-weight="bold" stroke-miterlimit="1.45">
      <text x="-147.0061" xml:space="preserve" y="493.9401" clip-path="url(#clipPath16)" stroke="none">Document</text>
    </g>
    <g fill="rgb(255,204,0)" text-rendering="geometricPrecision" shape-rendering="geometricPrecision" transform="matrix(1,0,0,1,352,-382)" stroke="rgb(255,204,0)">
      <rect x="-88" width="98" height="26" y="440" clip-path="url(#clipPath2)" stroke="none"/>
      <rect x="-89" y="439" clip-path="url(#clipPath2)" fill="yellow" width="1" height="28" stroke="none"/>
      <rect x="-88" y="439" clip-path="url(#clipPath2)" fill="yellow" width="98" height="1" stroke="none"/>
      <rect x="-88" y="466" clip-path="url(#clipPath2)" fill="rgb(178,142,0)" width="99" height="1" stroke="none"/>
      <rect x="10" y="439" clip-path="url(#clipPath2)" fill="rgb(178,142,0)" width="1" height="27" stroke="none"/>
    </g>
    <g font-size="13px" stroke-linecap="butt" transform="matrix(1,0,0,1,352,-382)" text-rendering="geometricPrecision" font-family="sans-serif" shape-rendering="geometricPrecision" font-weight="bold" stroke-miterlimit="1.45">
      <text x="-75.416" xml:space="preserve" y="456.2245" clip-path="url(#clipPath17)" stroke="none">Sequence</text>
    </g>
    <g fill="rgb(255,204,0)" text-rendering="geometricPrecision" shape-rendering="geometricPrecision" transform="matrix(1,0,0,1,352,-382)" stroke="rgb(255,204,0)">
      <rect x="217.3582" width="1" height="1" y="648.9541" clip-path="url(#clipPath2)" stroke="none"/>
    </g>
    <g text-rendering="geometricPrecision" stroke-miterlimit="1.45" shape-rendering="geometricPrecision" transform="matrix(1,0,0,1,352,-382)" stroke-linecap="butt">
      <rect fill="none" x="217.3582" width="1" height="1" y="648.9541" clip-path="url(#clipPath2)"/>
    </g>
    <g fill="rgb(255,204,0)" text-rendering="geometricPrecision" shape-rendering="geometricPrecision" transform="matrix(1,0,0,1,352,-382)" stroke="rgb(255,204,0)">
      <rect x="-184" width="61" height="26" y="515" clip-path="url(#clipPath2)" stroke="none"/>
      <rect x="-185" y="514" clip-path="url(#clipPath2)" fill="yellow" width="1" height="28" stroke="none"/>
      <rect x="-184" y="514" clip-path="url(#clipPath2)" fill="yellow" width="61" height="1" stroke="none"/>
      <rect x="-184" y="541" clip-path="url(#clipPath2)" fill="rgb(178,142,0)" width="62" height="1" stroke="none"/>
      <rect x="-123" y="514" clip-path="url(#clipPath2)" fill="rgb(178,142,0)" width="1" height="27" stroke="none"/>
    </g>
    <g font-size="13px" stroke-linecap="butt" transform="matrix(1,0,0,1,352,-382)" text-rendering="geometricPrecision" font-family="sans-serif" shape-rendering="geometricPrecision" font-weight="bold" stroke-miterlimit="1.45">
      <text x="-173.9115" xml:space="preserve" y="531.6557" clip-path="url(#clipPath18)" stroke="none">ToolX</text>
    </g>
    <g fill="rgb(255,204,0)" text-rendering="geometricPrecision" shape-rendering="geometricPrecision" transform="matrix(1,0,0,1,352,-382)" stroke="rgb(255,204,0)">
      <rect x="-216" width="61" height="26" y="553" clip-path="url(#clipPath2)" stroke="none"/>
      <rect x="-217" y="552" clip-path="url(#clipPath2)" fill="yellow" width="1" height="28" stroke="none"/>
      <rect x="-216" y="552" clip-path="url(#clipPath2)" fill="yellow" width="61" height="1" stroke="none"/>
      <rect x="-216" y="579" clip-path="url(#clipPath2)" fill="rgb(178,142,0)" width="62" height="1" stroke="none"/>
      <rect x="-155" y="552" clip-path="url(#clipPath2)" fill="rgb(178,142,0)" width="1" height="27" stroke="none"/>
    </g>
    <g font-size="13px" stroke-linecap="butt" transform="matrix(1,0,0,1,352,-382)" text-rendering="geometricPrecision" font-family="sans-serif" shape-rendering="geometricPrecision" font-weight="bold" stroke-miterlimit="1.45">
      <text x="-205.46" xml:space="preserve" y="569.3713" clip-path="url(#clipPath19)" stroke="none">ToolY</text>
    </g>
    <g fill="rgb(255,204,0)" text-rendering="geometricPrecision" shape-rendering="geometricPrecision" transform="matrix(1,0,0,1,352,-382)" stroke="rgb(255,204,0)">
      <rect x="-336.7795" width="63.8864" height="30" y="560.2242" clip-path="url(#clipPath2)" stroke="none"/>
    </g>
    <g text-rendering="geometricPrecision" stroke-miterlimit="1.45" shape-rendering="geometricPrecision" font-family="sans-serif" transform="matrix(1,0,0,1,352,-382)" stroke-linecap="butt">
      <text x="-322.7425" xml:space="preserve" y="579.3785" clip-path="url(#clipPath2)" stroke="none">String</text>
      <rect fill="none" x="-336.7795" width="63.8864" height="30" y="560.2242" clip-path="url(#clipPath2)"/>
    </g>
    <g fill="rgb(255,204,0)" text-rendering="geometricPrecision" shape-rendering="geometricPrecision" transform="matrix(1,0,0,1,352,-382)" stroke="rgb(255,204,0)">
      <rect x="-336.7795" width="63.8864" height="30" y="648.9541" clip-path="url(#clipPath2)" stroke="none"/>
    </g>
    <g text-rendering="geometricPrecision" stroke-miterlimit="1.45" shape-rendering="geometricPrecision" font-family="sans-serif" transform="matrix(1,0,0,1,352,-382)" stroke-linecap="butt">
      <text x="-330.7874" xml:space="preserve" y="661.124" clip-path="url(#clipPath2)" stroke="none">String or</text>
      <text x="-329.6126" xml:space="preserve" y="675.0928" clip-path="url(#clipPath2)" stroke="none">EO term</text>
      <rect fill="none" x="-336.7795" width="63.8864" height="30" y="648.9541" clip-path="url(#clipPath2)"/>
    </g>
    <g fill="rgb(255,204,0)" text-rendering="geometricPrecision" shape-rendering="geometricPrecision" transform="matrix(1,0,0,1,352,-382)" stroke="rgb(255,204,0)">
      <rect x="-241.559" width="63.8864" height="30" y="446.8732" clip-path="url(#clipPath2)" stroke="none"/>
    </g>
    <g text-rendering="geometricPrecision" stroke-miterlimit="1.45" shape-rendering="geometricPrecision" font-family="sans-serif" transform="matrix(1,0,0,1,352,-382)" stroke-linecap="butt">
      <text x="-230.8765" xml:space="preserve" y="466.0275" clip-path="url(#clipPath2)" stroke="none">Double</text>
      <rect fill="none" x="-241.559" width="63.8864" height="30" y="446.8732" clip-path="url(#clipPath2)"/>
      <path fill="none" d="M282.5915 467.1314 L361.9413 560.5437 L303.6997 659.0121" clip-path="url(#clipPath2)"/>
      <path d="M299.627 665.8979 L310.0397 658.1147 L304.2088 658.1515 L301.4325 653.0239 Z" clip-path="url(#clipPath2)" stroke="none"/>
      <text x="257.1826" xml:space="preserve" y="533.5574" clip-path="url(#clipPath2)" stroke="none">provenance</text>
      <path fill="none" d="M270.7213 467.1939 L270.7213 475.5457 L167.3929 515.6442 L167.3929 531.2418" clip-path="url(#clipPath2)"/>
      <path d="M167.3929 539.2418 L172.3929 527.2418 L167.3929 530.2418 L162.3929 527.2418 Z" clip-path="url(#clipPath2)" stroke="none"/>
      <text x="176.0408" xml:space="preserve" y="524.7867" clip-path="url(#clipPath2)" stroke="none">xref</text>
      <path fill="none" d="M270.7213 467.1939 L270.7213 475.5457 L21.3132 515.6442 L21.3132 531.2418" clip-path="url(#clipPath2)"/>
      <path d="M21.3132 539.2418 L26.3132 527.2418 L21.3132 530.2418 L16.3132 527.2418 Z" clip-path="url(#clipPath2)" stroke="none"/>
      <path fill="none" d="M270.7213 467.1507 L270.7213 475.7585 L96.6941 513.1027 L96.6941 531.2366" clip-path="url(#clipPath2)"/>
      <path d="M96.6941 539.2366 L101.6941 527.2366 L96.6941 530.2366 L91.6941 527.2366 Z" clip-path="url(#clipPath2)" stroke="none"/>
      <path fill="none" d="M150.305 567.2428 L125.3323 587.73" clip-path="url(#clipPath2)"/>
      <path fill="white" d="M113.7355 597.2438 L129.911 591.7344 L122.2999 582.457 Z" clip-path="url(#clipPath2)" stroke="none"/>
      <path fill="none" d="M113.7355 597.2438 L129.911 591.7344 L122.2999 582.457 Z" clip-path="url(#clipPath2)"/>
      <path fill="none" d="M39.5327 567.2428 L66.6359 588.0967" clip-path="url(#clipPath2)"/>
      <path fill="white" d="M78.5242 597.2438 L69.5022 582.7316 L62.1845 592.2422 Z" clip-path="url(#clipPath2)" stroke="none"/>
      <path fill="none" d="M78.5242 597.2438 L69.5022 582.7316 L62.1845 592.2422 Z" clip-path="url(#clipPath2)"/>
      <path fill="none" d="M96.6941 567.2428 L96.6941 582.2653" clip-path="url(#clipPath2)"/>
      <path fill="white" d="M96.6941 597.2653 L102.6941 581.2653 L90.6941 581.2653 Z" clip-path="url(#clipPath2)" stroke="none"/>
      <path fill="none" d="M96.6941 597.2653 L102.6941 581.2653 L90.6941 581.2653 Z" clip-path="url(#clipPath2)"/>
      <path fill="none" d="M210.5993 679.916 L161.6667 679.916" clip-path="url(#clipPath2)"/>
      <path fill="white" d="M146.6667 679.916 L162.6667 685.916 L162.6667 673.916 Z" clip-path="url(#clipPath2)" stroke="none"/>
      <path fill="none" d="M146.6667 679.916 L162.6667 685.916 L162.6667 673.916 Z" clip-path="url(#clipPath2)"/>
      <path fill="none" d="M96.6941 734.7442 L96.6941 701.9175" clip-path="url(#clipPath2)"/>
      <path d="M96.6941 693.9175 L91.6941 705.9175 L96.6941 702.9175 L101.6941 705.9175 Z" clip-path="url(#clipPath2)" stroke="none"/>
      <text x="103.0935" xml:space="preserve" y="719.1613" clip-path="url(#clipPath2)" stroke="none">provenance</text>
      <path fill="none" d="M96.6941 625.2108 L96.6941 657.8924" clip-path="url(#clipPath2)"/>
      <path d="M96.6941 665.8924 L101.6941 653.8924 L96.6941 656.8924 L91.6941 653.8924 Z" clip-path="url(#clipPath2)" stroke="none"/>
      <text x="24.4559" xml:space="preserve" y="637.1334" clip-path="url(#clipPath2)" stroke="none">provenance</text>
      <path fill="none" d="M46.7223 679.916 L-19.0122 679.916 L-19.0122 611.2242 L-27.4305 611.2242" clip-path="url(#clipPath2)"/>
      <path d="M-35.4305 611.2242 L-23.4305 616.2242 L-26.4305 611.2242 L-23.4305 606.2242 Z" clip-path="url(#clipPath2)" stroke="none"/>
      <text x="-30.5289" xml:space="preserve" y="605.2628" clip-path="url(#clipPath2)" stroke="none">annotation</text>
      <path fill="none" d="M-171.6504 597.2334 L-253.5 572 L-253.5 419 L270.7213 419 L270.7213 431.181" clip-path="url(#clipPath2)"/>
      <path d="M270.7213 439.181 L275.7213 427.181 L270.7213 430.181 L265.7213 427.181 Z" clip-path="url(#clipPath2)" stroke="none"/>
      <text x="-211.3347" xml:space="preserve" y="411.0051" clip-path="url(#clipPath2)" stroke="none">derivedFrom</text>
      <path fill="none" d="M183.2002 567.2428 L211.044 591.9358" clip-path="url(#clipPath2)"/>
      <path d="M217.0294 597.2438 L211.3688 585.5409 L210.2958 591.2723 L204.7338 593.0226 Z" clip-path="url(#clipPath2)" stroke="none"/>
      <text x="219.9404" xml:space="preserve" y="586.554" clip-path="url(#clipPath2)" stroke="none">provenance</text>
      <path fill="none" d="M205.0488 625.2275 L137.8352 659.1514" clip-path="url(#clipPath2)"/>
      <path fill="white" d="M124.4441 665.91 L141.4314 664.0572 L136.0245 653.3444 Z" clip-path="url(#clipPath2)" stroke="none"/>
      <path fill="none" d="M124.4441 665.91 L141.4314 664.0572 L136.0245 653.3444 Z" clip-path="url(#clipPath2)"/>
      <path fill="none" d="M196.3701 553.1284 L218.4141 553.0554" clip-path="url(#clipPath2)"/>
      <path d="M226.4141 553.0289 L214.3976 548.0687 L217.4141 553.0587 L214.4307 558.0687 Z" clip-path="url(#clipPath2)" stroke="none"/>
      <text x="203.1399" xml:space="preserve" y="544.8526" clip-path="url(#clipPath2)" stroke="none">db</text>
      <path fill="none" d="M189.1095 625.2165 L123.8891 646.107 L-126.2681 646.107 L-126.2681 657.8839" clip-path="url(#clipPath2)"/>
      <path d="M-126.2681 665.8839 L-121.2681 653.8839 L-126.2681 656.8839 L-131.2681 653.8839 Z" clip-path="url(#clipPath2)" stroke="none"/>
      <text x="-171.2703" xml:space="preserve" y="652.378" clip-path="url(#clipPath2)" stroke="none">origin</text>
      <path fill="none" d="M-126.2681 693.934 L-126.2681 719.7606" clip-path="url(#clipPath2)"/>
      <path fill="white" d="M-126.2681 734.7606 L-120.2681 718.7606 L-132.2681 718.7606 Z" clip-path="url(#clipPath2)" stroke="none"/>
      <path fill="none" d="M-126.2681 734.7606 L-120.2681 718.7606 L-132.2681 718.7606 Z" clip-path="url(#clipPath2)"/>
      <path fill="none" d="M51.3777 693.9088 L-73.302 732.4073" clip-path="url(#clipPath2)"/>
      <path d="M-80.9459 734.7676 L-68.0048 736.0046 L-72.3465 732.1122 L-70.9552 726.4497 Z" clip-path="url(#clipPath2)" stroke="none"/>
      <text x="-13.4547" xml:space="preserve" y="723.6337" clip-path="url(#clipPath2)" stroke="none">origin</text>
      <path fill="none" d="M291.3357 693.9291 L291.3357 724.7622" clip-path="url(#clipPath2)"/>
      <path d="M291.3357 732.7622 L296.3357 720.7622 L291.3357 723.7622 L286.3357 720.7622 Z" clip-path="url(#clipPath2)" stroke="none"/>
      <text x="297.8996" xml:space="preserve" y="713.427" clip-path="url(#clipPath2)" stroke="none">onProperty</text>
      <path fill="none" d="M-119.1537 597.2209 L-109.7485 578.7084 L-109.7485 512.8977" clip-path="url(#clipPath2)"/>
      <path d="M-109.7485 504.8977 L-114.7485 516.8977 L-109.7485 513.8977 L-104.7485 516.8977 Z" clip-path="url(#clipPath2)" stroke="none"/>
      <text x="-105.6144" xml:space="preserve" y="564.925" clip-path="url(#clipPath2)" stroke="none">reference</text>
      <path fill="none" d="M-8.0925 539.2349 L-73.1146 508.3014" clip-path="url(#clipPath2)"/>
      <path d="M-80.3387 504.8645 L-71.6505 514.5349 L-72.2116 508.731 L-67.3545 505.5047 Z" clip-path="url(#clipPath2)" stroke="none"/>
      <text x="-90.3115" xml:space="preserve" y="538.1681" clip-path="url(#clipPath2)" stroke="none">reference</text>
      <path fill="none" d="M-39.7485 467.1884 L-39.7485 476.7109 L21.3132 515.4374 L21.3132 531.2387" clip-path="url(#clipPath2)"/>
      <path d="M21.3132 539.2387 L26.3132 527.2387 L21.3132 530.2387 L16.3132 527.2387 Z" clip-path="url(#clipPath2)" stroke="none"/>
      <text x="24.4692" xml:space="preserve" y="525.3968" clip-path="url(#clipPath2)" stroke="none">citation</text>
      <path fill="none" d="M-39.7485 467.1182 L-39.7485 476.4405 L96.6941 513.0515 L96.6941 531.2187" clip-path="url(#clipPath2)"/>
      <path d="M96.6941 539.2187 L101.6941 527.2187 L96.6941 530.2187 L91.6941 527.2187 Z" clip-path="url(#clipPath2)" stroke="none"/>
      <text x="102.4313" xml:space="preserve" y="524.674" clip-path="url(#clipPath2)" stroke="none">note</text>
      <path fill="none" d="M-39.7485 467.1742 L-39.7485 476.5338 L167.3929 515.6442 L167.3929 531.2418" clip-path="url(#clipPath2)"/>
      <path d="M167.3929 539.2418 L172.3929 527.2418 L167.3929 530.2418 L162.3929 527.2418 Z" clip-path="url(#clipPath2)" stroke="none"/>
      <path fill="none" stroke-dasharray="6,2" d="M257.0008 665.9152 L217.8582 649.9541" clip-path="url(#clipPath2)"/>
      <path fill="none" stroke-dasharray="6,2" d="M227.3242 625.2244 L218.0536 648.9541" clip-path="url(#clipPath2)"/>
      <path fill="none" stroke-dasharray="6,2" d="M218.3582 649.4541 L146.6845 667.3995" clip-path="url(#clipPath2)"/>
      <path fill="none" d="M-149.435 542.6056 L-138.3444 582.7539" clip-path="url(#clipPath2)"/>
      <path fill="white" d="M-134.3504 597.2124 L-132.8273 580.1924 L-144.3941 583.3876 Z" clip-path="url(#clipPath2)" stroke="none"/>
      <path fill="none" d="M-134.3504 597.2124 L-132.8273 580.1924 L-144.3941 583.3876 Z" clip-path="url(#clipPath2)"/>
      <path fill="none" d="M-166.7852 580.3199 L-156.5145 588.1539" clip-path="url(#clipPath2)"/>
      <path fill="white" d="M-144.5879 597.2509 L-153.6708 582.7768 L-160.9484 592.3181 Z" clip-path="url(#clipPath2)" stroke="none"/>
      <path fill="none" d="M-144.5879 597.2509 L-153.6708 582.7768 L-160.9484 592.3181 Z" clip-path="url(#clipPath2)"/>
      <path fill="none" d="M-195.7161 597.2233 L-265.0508 583.2451" clip-path="url(#clipPath2)"/>
      <path d="M-272.8931 581.6641 L-262.1179 588.937 L-264.0706 583.4427 L-260.1416 579.1342 Z" clip-path="url(#clipPath2)" stroke="none"/>
      <text x="-328.5419" xml:space="preserve" y="610.0942" clip-path="url(#clipPath2)" stroke="none">provenanceNote</text>
      <path fill="none" d="M-173.6567 625.2177 L-265.2206 652.2559" clip-path="url(#clipPath2)"/>
      <path d="M-272.8931 654.5215 L-259.9683 655.9183 L-264.2615 651.9727 L-262.8004 646.3278 Z" clip-path="url(#clipPath2)" stroke="none"/>
      <text x="-302.3008" xml:space="preserve" y="637.9177" clip-path="url(#clipPath2)" stroke="none">experiment</text>
      <path fill="none" d="M-185.2281 528.5888 L-209.6158 528.5888 L-209.6158 484.8732" clip-path="url(#clipPath2)"/>
      <path d="M-209.6158 476.8732 L-214.6158 488.8732 L-209.6158 485.8732 L-204.6158 488.8732 Z" clip-path="url(#clipPath2)" stroke="none"/>
      <text x="-204.0375" xml:space="preserve" y="507.3509" clip-path="url(#clipPath2)" stroke="none">eValue</text>
      <path fill="none" d="M-198.1761 552.3045 L-209.6158 540 L-209.6158 484.8732" clip-path="url(#clipPath2)"/>
      <path d="M-209.6158 476.8732 L-214.6158 488.8732 L-209.6158 485.8732 L-204.6158 488.8732 Z" clip-path="url(#clipPath2)" stroke="none"/>
    </g>
  </g>
</svg>
