<?xml version="1.0" encoding="UTF-8"?><svg xmlns="http://www.w3.org/2000/svg" xmlns:xlink="http://www.w3.org/1999/xlink" fill-opacity="1" color-rendering="auto" color-interpolation="auto" text-rendering="auto" stroke="black" stroke-linecap="square" width="761" stroke-miterlimit="10" shape-rendering="auto" stroke-opacity="1" fill="black" stroke-dasharray="none" font-weight="normal" stroke-width="1" height="414" font-family="'Dialog'" font-style="normal" stroke-linejoin="miter" font-size="12px" stroke-dashoffset="0" image-rendering="auto">
  <!--Generated by ySVG 2.5-->
  <defs id="genericDefs"/>
  <g>
    <defs id="defs1">
      <clipPath clipPathUnits="userSpaceOnUse" id="clipPath1">
        <path d="M0 0 L761 0 L761 414 L0 414 L0 0 Z"/>
      </clipPath>
      <clipPath clipPathUnits="userSpaceOnUse" id="clipPath2">
        <path d="M393 176 L1154 176 L1154 590 L393 590 L393 176 Z"/>
      </clipPath>
      <clipPath clipPathUnits="userSpaceOnUse" id="clipPath3">
        <path d="M684 257 L684 285 L784 285 L784 257 Z"/>
      </clipPath>
      <clipPath clipPathUnits="userSpaceOnUse" id="clipPath4">
        <path d="M409 480 L409 508 L546 508 L546 480 Z"/>
      </clipPath>
      <clipPath clipPathUnits="userSpaceOnUse" id="clipPath5">
        <path d="M621 480 L621 508 L777 508 L777 480 Z"/>
      </clipPath>
      <clipPath clipPathUnits="userSpaceOnUse" id="clipPath6">
        <path d="M425 546 L425 574 L654 574 L654 546 Z"/>
      </clipPath>
      <clipPath clipPathUnits="userSpaceOnUse" id="clipPath7">
        <path d="M710 546 L710 574 L915 574 L915 546 Z"/>
      </clipPath>
      <clipPath clipPathUnits="userSpaceOnUse" id="clipPath8">
        <path d="M641 414 L641 442 L758 442 L758 414 Z"/>
      </clipPath>
      <clipPath clipPathUnits="userSpaceOnUse" id="clipPath9">
        <path d="M749 329 L749 357 L849 357 L849 329 Z"/>
      </clipPath>
      <clipPath clipPathUnits="userSpaceOnUse" id="clipPath10">
        <path d="M862 271 L862 299 L979 299 L979 271 Z"/>
      </clipPath>
      <clipPath clipPathUnits="userSpaceOnUse" id="clipPath11">
        <path d="M871 199 L871 227 L971 227 L971 199 Z"/>
      </clipPath>
      <clipPath clipPathUnits="userSpaceOnUse" id="clipPath12">
        <path d="M939 316 L939 344 L1090 344 L1090 316 Z"/>
      </clipPath>
      <clipPath clipPathUnits="userSpaceOnUse" id="clipPath13">
        <path d="M409 257 L409 285 L536 285 L536 257 Z"/>
      </clipPath>
      <clipPath clipPathUnits="userSpaceOnUse" id="clipPath14">
        <path d="M554 257 L554 285 L654 285 L654 257 Z"/>
      </clipPath>
      <clipPath clipPathUnits="userSpaceOnUse" id="clipPath15">
        <path d="M461 199 L461 227 L578 227 L578 199 Z"/>
      </clipPath>
      <clipPath clipPathUnits="userSpaceOnUse" id="clipPath16">
        <path d="M626 199 L626 227 L726 227 L726 199 Z"/>
      </clipPath>
      <clipPath clipPathUnits="userSpaceOnUse" id="clipPath17">
        <path d="M554 329 L554 357 L654 357 L654 329 Z"/>
      </clipPath>
      <clipPath clipPathUnits="userSpaceOnUse" id="clipPath18">
        <path d="M918 422 L918 450 L1091 450 L1091 422 Z"/>
      </clipPath>
      <clipPath clipPathUnits="userSpaceOnUse" id="clipPath19">
        <path d="M918 484 L918 512 L1091 512 L1091 484 Z"/>
      </clipPath>
      <clipPath clipPathUnits="userSpaceOnUse" id="clipPath20">
        <path d="M1006 271 L1006 299 L1106 299 L1106 271 Z"/>
      </clipPath>
      <clipPath clipPathUnits="userSpaceOnUse" id="clipPath21">
        <path d="M944 374 L944 402 L1090 402 L1090 374 Z"/>
      </clipPath>
    </defs>
    <g fill="rgb(255,204,0)" text-rendering="geometricPrecision" shape-rendering="geometricPrecision" transform="matrix(1,0,0,1,-393,-176)" stroke="rgb(255,204,0)">
      <rect x="685" width="98" height="26" y="258" clip-path="url(#clipPath2)" stroke="none"/>
    </g>
    <g fill="yellow" text-rendering="geometricPrecision" shape-rendering="geometricPrecision" transform="matrix(1,0,0,1,-393,-176)" stroke="yellow">
      <rect x="684" width="1" height="28" y="257" clip-path="url(#clipPath2)" stroke="none"/>
      <rect x="685" width="98" height="1" y="257" clip-path="url(#clipPath2)" stroke="none"/>
      <rect x="685" y="284" clip-path="url(#clipPath2)" fill="rgb(178,142,0)" width="99" height="1" stroke="none"/>
      <rect x="783" y="257" clip-path="url(#clipPath2)" fill="rgb(178,142,0)" width="1" height="27" stroke="none"/>
    </g>
    <g font-size="13px" stroke-linecap="butt" transform="matrix(1,0,0,1,-393,-176)" text-rendering="geometricPrecision" font-family="sans-serif" shape-rendering="geometricPrecision" font-weight="bold" stroke-miterlimit="1.45">
      <text x="705.3403" xml:space="preserve" y="274.0669" clip-path="url(#clipPath3)" stroke="none">Dataset</text>
    </g>
    <g fill="rgb(255,204,0)" text-rendering="geometricPrecision" shape-rendering="geometricPrecision" transform="matrix(1,0,0,1,-393,-176)" stroke="rgb(255,204,0)">
      <rect x="410" width="135" height="26" y="481" clip-path="url(#clipPath2)" stroke="none"/>
      <rect x="409" y="480" clip-path="url(#clipPath2)" fill="yellow" width="1" height="28" stroke="none"/>
      <rect x="410" y="480" clip-path="url(#clipPath2)" fill="yellow" width="135" height="1" stroke="none"/>
      <rect x="410" y="507" clip-path="url(#clipPath2)" fill="rgb(178,142,0)" width="136" height="1" stroke="none"/>
      <rect x="545" y="480" clip-path="url(#clipPath2)" fill="rgb(178,142,0)" width="1" height="27" stroke="none"/>
    </g>
    <g font-size="13px" stroke-linecap="butt" transform="matrix(1,0,0,1,-393,-176)" text-rendering="geometricPrecision" font-family="sans-serif" shape-rendering="geometricPrecision" font-weight="bold" stroke-miterlimit="1.45">
      <text x="413.5823" xml:space="preserve" y="497.0669" clip-path="url(#clipPath4)" stroke="none">AnnotationResult</text>
    </g>
    <g fill="rgb(255,204,0)" text-rendering="geometricPrecision" shape-rendering="geometricPrecision" transform="matrix(1,0,0,1,-393,-176)" stroke="rgb(255,204,0)">
      <rect x="622" width="154" height="26" y="481" clip-path="url(#clipPath2)" stroke="none"/>
      <rect x="621" y="480" clip-path="url(#clipPath2)" fill="yellow" width="1" height="28" stroke="none"/>
      <rect x="622" y="480" clip-path="url(#clipPath2)" fill="yellow" width="154" height="1" stroke="none"/>
      <rect x="622" y="507" clip-path="url(#clipPath2)" fill="rgb(178,142,0)" width="155" height="1" stroke="none"/>
      <rect x="776" y="480" clip-path="url(#clipPath2)" fill="rgb(178,142,0)" width="1" height="27" stroke="none"/>
    </g>
    <g font-size="13px" stroke-linecap="butt" transform="matrix(1,0,0,1,-393,-176)" text-rendering="geometricPrecision" font-family="sans-serif" shape-rendering="geometricPrecision" font-weight="bold" stroke-miterlimit="1.45">
      <text x="630.7993" xml:space="preserve" y="497.0669" clip-path="url(#clipPath5)" stroke="none">AnnotationActivity</text>
    </g>
    <g fill="rgb(255,204,0)" text-rendering="geometricPrecision" shape-rendering="geometricPrecision" transform="matrix(1,0,0,1,-393,-176)" stroke="rgb(255,204,0)">
      <rect x="426" width="227" height="26" y="547" clip-path="url(#clipPath2)" stroke="none"/>
      <rect x="425" y="546" clip-path="url(#clipPath2)" fill="yellow" width="1" height="28" stroke="none"/>
      <rect x="426" y="546" clip-path="url(#clipPath2)" fill="yellow" width="227" height="1" stroke="none"/>
      <rect x="426" y="573" clip-path="url(#clipPath2)" fill="rgb(178,142,0)" width="228" height="1" stroke="none"/>
      <rect x="653" y="546" clip-path="url(#clipPath2)" fill="rgb(178,142,0)" width="1" height="27" stroke="none"/>
    </g>
    <g font-size="13px" stroke-linecap="butt" transform="matrix(1,0,0,1,-393,-176)" text-rendering="geometricPrecision" font-family="sans-serif" shape-rendering="geometricPrecision" font-weight="bold" stroke-miterlimit="1.45">
      <text x="433.2212" xml:space="preserve" y="563.0669" clip-path="url(#clipPath6)" stroke="none">AutomaticAnnotationActivity</text>
    </g>
    <g fill="rgb(255,204,0)" text-rendering="geometricPrecision" shape-rendering="geometricPrecision" transform="matrix(1,0,0,1,-393,-176)" stroke="rgb(255,204,0)">
      <rect x="711" width="203" height="26" y="547" clip-path="url(#clipPath2)" stroke="none"/>
      <rect x="710" y="546" clip-path="url(#clipPath2)" fill="yellow" width="1" height="28" stroke="none"/>
      <rect x="711" y="546" clip-path="url(#clipPath2)" fill="yellow" width="203" height="1" stroke="none"/>
      <rect x="711" y="573" clip-path="url(#clipPath2)" fill="rgb(178,142,0)" width="204" height="1" stroke="none"/>
      <rect x="914" y="546" clip-path="url(#clipPath2)" fill="rgb(178,142,0)" width="1" height="27" stroke="none"/>
    </g>
    <g font-size="13px" stroke-linecap="butt" transform="matrix(1,0,0,1,-393,-176)" text-rendering="geometricPrecision" font-family="sans-serif" shape-rendering="geometricPrecision" font-weight="bold" stroke-miterlimit="1.45">
      <text x="717.0757" xml:space="preserve" y="563.0669" clip-path="url(#clipPath7)" stroke="none">ManualAnnotationActivity</text>
    </g>
    <g fill="rgb(255,204,0)" text-rendering="geometricPrecision" shape-rendering="geometricPrecision" transform="matrix(1,0,0,1,-393,-176)" stroke="rgb(255,204,0)">
      <rect x="642" width="115" height="26" y="415" clip-path="url(#clipPath2)" stroke="none"/>
      <rect x="641" y="414" clip-path="url(#clipPath2)" fill="yellow" width="1" height="28" stroke="none"/>
      <rect x="642" y="414" clip-path="url(#clipPath2)" fill="yellow" width="115" height="1" stroke="none"/>
      <rect x="642" y="441" clip-path="url(#clipPath2)" fill="rgb(178,142,0)" width="116" height="1" stroke="none"/>
      <rect x="757" y="414" clip-path="url(#clipPath2)" fill="rgb(178,142,0)" width="1" height="27" stroke="none"/>
    </g>
    <g font-size="13px" stroke-linecap="butt" transform="matrix(1,0,0,1,-393,-176)" text-rendering="geometricPrecision" font-family="sans-serif" shape-rendering="geometricPrecision" font-weight="bold" stroke-miterlimit="1.45">
      <text x="647.8459" xml:space="preserve" y="431.0669" clip-path="url(#clipPath8)" stroke="none">provo:Activity</text>
    </g>
    <g fill="rgb(255,204,0)" text-rendering="geometricPrecision" shape-rendering="geometricPrecision" transform="matrix(1,0,0,1,-393,-176)" stroke="rgb(255,204,0)">
      <rect x="750" width="98" height="26" y="330" clip-path="url(#clipPath2)" stroke="none"/>
      <rect x="749" y="329" clip-path="url(#clipPath2)" fill="yellow" width="1" height="28" stroke="none"/>
      <rect x="750" y="329" clip-path="url(#clipPath2)" fill="yellow" width="98" height="1" stroke="none"/>
      <rect x="750" y="356" clip-path="url(#clipPath2)" fill="rgb(178,142,0)" width="99" height="1" stroke="none"/>
      <rect x="848" y="329" clip-path="url(#clipPath2)" fill="rgb(178,142,0)" width="1" height="27" stroke="none"/>
    </g>
    <g font-size="13px" stroke-linecap="butt" transform="matrix(1,0,0,1,-393,-176)" text-rendering="geometricPrecision" font-family="sans-serif" shape-rendering="geometricPrecision" font-weight="bold" stroke-miterlimit="1.45">
      <text x="753.5476" xml:space="preserve" y="346.0669" clip-path="url(#clipPath9)" stroke="none">provo:Agent</text>
    </g>
    <g fill="rgb(255,204,0)" text-rendering="geometricPrecision" shape-rendering="geometricPrecision" transform="matrix(1,0,0,1,-393,-176)" stroke="rgb(255,204,0)">
      <rect x="863" width="115" height="26" y="272" clip-path="url(#clipPath2)" stroke="none"/>
      <rect x="862" y="271" clip-path="url(#clipPath2)" fill="yellow" width="1" height="28" stroke="none"/>
      <rect x="863" y="271" clip-path="url(#clipPath2)" fill="yellow" width="115" height="1" stroke="none"/>
      <rect x="863" y="298" clip-path="url(#clipPath2)" fill="rgb(178,142,0)" width="116" height="1" stroke="none"/>
      <rect x="978" y="271" clip-path="url(#clipPath2)" fill="rgb(178,142,0)" width="1" height="27" stroke="none"/>
    </g>
    <g font-size="13px" stroke-linecap="butt" transform="matrix(1,0,0,1,-393,-176)" text-rendering="geometricPrecision" font-family="sans-serif" shape-rendering="geometricPrecision" font-weight="bold" stroke-miterlimit="1.45">
      <text x="872.0342" xml:space="preserve" y="288.5669" clip-path="url(#clipPath10)" stroke="none">provo:Person</text>
    </g>
    <g fill="rgb(255,204,0)" text-rendering="geometricPrecision" shape-rendering="geometricPrecision" transform="matrix(1,0,0,1,-393,-176)" stroke="rgb(255,204,0)">
      <rect x="872" width="98" height="26" y="200" clip-path="url(#clipPath2)" stroke="none"/>
      <rect x="871" y="199" clip-path="url(#clipPath2)" fill="yellow" width="1" height="28" stroke="none"/>
      <rect x="872" y="199" clip-path="url(#clipPath2)" fill="yellow" width="98" height="1" stroke="none"/>
      <rect x="872" y="226" clip-path="url(#clipPath2)" fill="rgb(178,142,0)" width="99" height="1" stroke="none"/>
      <rect x="970" y="199" clip-path="url(#clipPath2)" fill="rgb(178,142,0)" width="1" height="27" stroke="none"/>
    </g>
    <g font-size="13px" stroke-linecap="butt" transform="matrix(1,0,0,1,-393,-176)" text-rendering="geometricPrecision" font-family="sans-serif" shape-rendering="geometricPrecision" font-weight="bold" stroke-miterlimit="1.45">
      <text x="893.2322" xml:space="preserve" y="216.0669" clip-path="url(#clipPath11)" stroke="none">Curator</text>
    </g>
    <g fill="rgb(255,204,0)" text-rendering="geometricPrecision" shape-rendering="geometricPrecision" transform="matrix(1,0,0,1,-393,-176)" stroke="rgb(255,204,0)">
      <rect x="940" width="149" height="26" y="317" clip-path="url(#clipPath2)" stroke="none"/>
      <rect x="939" y="316" clip-path="url(#clipPath2)" fill="yellow" width="1" height="28" stroke="none"/>
      <rect x="940" y="316" clip-path="url(#clipPath2)" fill="yellow" width="149" height="1" stroke="none"/>
      <rect x="940" y="343" clip-path="url(#clipPath2)" fill="rgb(178,142,0)" width="150" height="1" stroke="none"/>
      <rect x="1089" y="316" clip-path="url(#clipPath2)" fill="rgb(178,142,0)" width="1" height="27" stroke="none"/>
    </g>
    <g font-size="13px" stroke-linecap="butt" transform="matrix(1,0,0,1,-393,-176)" text-rendering="geometricPrecision" font-family="sans-serif" shape-rendering="geometricPrecision" font-weight="bold" stroke-miterlimit="1.45">
      <text x="944.1506" xml:space="preserve" y="333.0669" clip-path="url(#clipPath12)" stroke="none">provo:Organization</text>
    </g>
    <g fill="rgb(255,204,0)" text-rendering="geometricPrecision" shape-rendering="geometricPrecision" transform="matrix(1,0,0,1,-393,-176)" stroke="rgb(255,204,0)">
      <rect x="410" width="125" height="26" y="258" clip-path="url(#clipPath2)" stroke="none"/>
      <rect x="409" y="257" clip-path="url(#clipPath2)" fill="yellow" width="1" height="28" stroke="none"/>
      <rect x="410" y="257" clip-path="url(#clipPath2)" fill="yellow" width="125" height="1" stroke="none"/>
      <rect x="410" y="284" clip-path="url(#clipPath2)" fill="rgb(178,142,0)" width="126" height="1" stroke="none"/>
      <rect x="535" y="257" clip-path="url(#clipPath2)" fill="rgb(178,142,0)" width="1" height="27" stroke="none"/>
    </g>
    <g font-size="13px" stroke-linecap="butt" transform="matrix(1,0,0,1,-393,-176)" text-rendering="geometricPrecision" font-family="sans-serif" shape-rendering="geometricPrecision" font-weight="bold" stroke-miterlimit="1.45">
      <text x="419.4272" xml:space="preserve" y="274.0669" clip-path="url(#clipPath13)" stroke="none">TemporaryFile</text>
    </g>
    <g fill="rgb(255,204,0)" text-rendering="geometricPrecision" shape-rendering="geometricPrecision" transform="matrix(1,0,0,1,-393,-176)" stroke="rgb(255,204,0)">
      <rect x="555" width="98" height="26" y="258" clip-path="url(#clipPath2)" stroke="none"/>
      <rect x="554" y="257" clip-path="url(#clipPath2)" fill="yellow" width="1" height="28" stroke="none"/>
      <rect x="555" y="257" clip-path="url(#clipPath2)" fill="yellow" width="98" height="1" stroke="none"/>
      <rect x="555" y="284" clip-path="url(#clipPath2)" fill="rgb(178,142,0)" width="99" height="1" stroke="none"/>
      <rect x="653" y="257" clip-path="url(#clipPath2)" fill="rgb(178,142,0)" width="1" height="27" stroke="none"/>
    </g>
    <g font-size="13px" stroke-linecap="butt" transform="matrix(1,0,0,1,-393,-176)" text-rendering="geometricPrecision" font-family="sans-serif" shape-rendering="geometricPrecision" font-weight="bold" stroke-miterlimit="1.45">
      <text x="573.4202" xml:space="preserve" y="274.0669" clip-path="url(#clipPath14)" stroke="none">DataFile</text>
    </g>
    <g fill="rgb(255,204,0)" text-rendering="geometricPrecision" shape-rendering="geometricPrecision" transform="matrix(1,0,0,1,-393,-176)" stroke="rgb(255,204,0)">
      <rect x="462" width="115" height="26" y="200" clip-path="url(#clipPath2)" stroke="none"/>
      <rect x="461" y="199" clip-path="url(#clipPath2)" fill="yellow" width="1" height="28" stroke="none"/>
      <rect x="462" y="199" clip-path="url(#clipPath2)" fill="yellow" width="115" height="1" stroke="none"/>
      <rect x="462" y="226" clip-path="url(#clipPath2)" fill="rgb(178,142,0)" width="116" height="1" stroke="none"/>
      <rect x="577" y="199" clip-path="url(#clipPath2)" fill="rgb(178,142,0)" width="1" height="27" stroke="none"/>
    </g>
    <g font-size="13px" stroke-linecap="butt" transform="matrix(1,0,0,1,-393,-176)" text-rendering="geometricPrecision" font-family="sans-serif" shape-rendering="geometricPrecision" font-weight="bold" stroke-miterlimit="1.45">
      <text x="466.5669" xml:space="preserve" y="216.0669" clip-path="url(#clipPath15)" stroke="none">PublicDataFile</text>
    </g>
    <g fill="rgb(255,204,0)" text-rendering="geometricPrecision" shape-rendering="geometricPrecision" transform="matrix(1,0,0,1,-393,-176)" stroke="rgb(255,204,0)">
      <rect x="627" width="98" height="26" y="200" clip-path="url(#clipPath2)" stroke="none"/>
      <rect x="626" y="199" clip-path="url(#clipPath2)" fill="yellow" width="1" height="28" stroke="none"/>
      <rect x="627" y="199" clip-path="url(#clipPath2)" fill="yellow" width="98" height="1" stroke="none"/>
      <rect x="627" y="226" clip-path="url(#clipPath2)" fill="rgb(178,142,0)" width="99" height="1" stroke="none"/>
      <rect x="725" y="199" clip-path="url(#clipPath2)" fill="rgb(178,142,0)" width="1" height="27" stroke="none"/>
    </g>
    <g font-size="13px" stroke-linecap="butt" transform="matrix(1,0,0,1,-393,-176)" text-rendering="geometricPrecision" font-family="sans-serif" shape-rendering="geometricPrecision" font-weight="bold" stroke-miterlimit="1.45">
      <text x="627.9578" xml:space="preserve" y="216.0669" clip-path="url(#clipPath16)" stroke="none">LocalDatafile</text>
    </g>
    <g fill="rgb(255,204,0)" text-rendering="geometricPrecision" shape-rendering="geometricPrecision" transform="matrix(1,0,0,1,-393,-176)" stroke="rgb(255,204,0)">
      <rect x="555" width="98" height="26" y="330" clip-path="url(#clipPath2)" stroke="none"/>
      <rect x="554" y="329" clip-path="url(#clipPath2)" fill="yellow" width="1" height="28" stroke="none"/>
      <rect x="555" y="329" clip-path="url(#clipPath2)" fill="yellow" width="98" height="1" stroke="none"/>
      <rect x="555" y="356" clip-path="url(#clipPath2)" fill="rgb(178,142,0)" width="99" height="1" stroke="none"/>
      <rect x="653" y="329" clip-path="url(#clipPath2)" fill="rgb(178,142,0)" width="1" height="27" stroke="none"/>
    </g>
    <g font-size="13px" stroke-linecap="butt" transform="matrix(1,0,0,1,-393,-176)" text-rendering="geometricPrecision" font-family="sans-serif" shape-rendering="geometricPrecision" font-weight="bold" stroke-miterlimit="1.45">
      <text x="558.627" xml:space="preserve" y="346.0669" clip-path="url(#clipPath17)" stroke="none">provo:Entity</text>
    </g>
    <g fill="rgb(255,204,0)" text-rendering="geometricPrecision" shape-rendering="geometricPrecision" transform="matrix(1,0,0,1,-393,-176)" stroke="rgb(255,204,0)">
      <rect x="919" width="171" height="26" y="423" clip-path="url(#clipPath2)" stroke="none"/>
      <rect x="918" y="422" clip-path="url(#clipPath2)" fill="yellow" width="1" height="28" stroke="none"/>
      <rect x="919" y="422" clip-path="url(#clipPath2)" fill="yellow" width="171" height="1" stroke="none"/>
      <rect x="919" y="449" clip-path="url(#clipPath2)" fill="rgb(178,142,0)" width="172" height="1" stroke="none"/>
      <rect x="1090" y="422" clip-path="url(#clipPath2)" fill="rgb(178,142,0)" width="1" height="27" stroke="none"/>
    </g>
    <g font-size="13px" stroke-linecap="butt" transform="matrix(1,0,0,1,-393,-176)" text-rendering="geometricPrecision" font-family="sans-serif" shape-rendering="geometricPrecision" font-weight="bold" stroke-miterlimit="1.45">
      <text x="926.2104" xml:space="preserve" y="439.0669" clip-path="url(#clipPath18)" stroke="none">provo:SoftwareAgent</text>
    </g>
    <g fill="rgb(255,204,0)" text-rendering="geometricPrecision" shape-rendering="geometricPrecision" transform="matrix(1,0,0,1,-393,-176)" stroke="rgb(255,204,0)">
      <rect x="919" width="171" height="26" y="485" clip-path="url(#clipPath2)" stroke="none"/>
      <rect x="918" y="484" clip-path="url(#clipPath2)" fill="yellow" width="1" height="28" stroke="none"/>
      <rect x="919" y="484" clip-path="url(#clipPath2)" fill="yellow" width="171" height="1" stroke="none"/>
      <rect x="919" y="511" clip-path="url(#clipPath2)" fill="rgb(178,142,0)" width="172" height="1" stroke="none"/>
      <rect x="1090" y="484" clip-path="url(#clipPath2)" fill="rgb(178,142,0)" width="1" height="27" stroke="none"/>
    </g>
    <g font-size="13px" stroke-linecap="butt" transform="matrix(1,0,0,1,-393,-176)" text-rendering="geometricPrecision" font-family="sans-serif" shape-rendering="geometricPrecision" font-weight="bold" stroke-miterlimit="1.45">
      <text x="930.9902" xml:space="preserve" y="501.0669" clip-path="url(#clipPath19)" stroke="none">AnnotationSoftware</text>
    </g>
    <g fill="rgb(255,204,0)" text-rendering="geometricPrecision" shape-rendering="geometricPrecision" transform="matrix(1,0,0,1,-393,-176)" stroke="rgb(255,204,0)">
      <rect x="1029" width="54" height="30" y="198" clip-path="url(#clipPath2)" stroke="none"/>
    </g>
    <g text-rendering="geometricPrecision" stroke-miterlimit="1.45" shape-rendering="geometricPrecision" font-family="sans-serif" transform="matrix(1,0,0,1,-393,-176)" stroke-linecap="butt">
      <text x="1038.0938" xml:space="preserve" y="217.1543" clip-path="url(#clipPath2)" stroke="none">String</text>
      <rect fill="none" x="1029" width="54" height="30" y="198" clip-path="url(#clipPath2)"/>
    </g>
    <g fill="rgb(255,204,0)" text-rendering="geometricPrecision" shape-rendering="geometricPrecision" transform="matrix(1,0,0,1,-393,-176)" stroke="rgb(255,204,0)">
      <rect x="1029.25" width="45" height="30" y="545" clip-path="url(#clipPath2)" stroke="none"/>
    </g>
    <g text-rendering="geometricPrecision" stroke-miterlimit="1.45" shape-rendering="geometricPrecision" font-family="sans-serif" transform="matrix(1,0,0,1,-393,-176)" stroke-linecap="butt">
      <text x="1033.8438" xml:space="preserve" y="564.1543" clip-path="url(#clipPath2)" stroke="none">String</text>
      <rect fill="none" x="1029.25" width="45" height="30" y="545" clip-path="url(#clipPath2)"/>
    </g>
    <g fill="rgb(255,204,0)" text-rendering="geometricPrecision" shape-rendering="geometricPrecision" transform="matrix(1,0,0,1,-393,-176)" stroke="rgb(255,204,0)">
      <rect x="939.25" width="45" height="30" y="545" clip-path="url(#clipPath2)" stroke="none"/>
    </g>
    <g text-rendering="geometricPrecision" stroke-miterlimit="1.45" shape-rendering="geometricPrecision" font-family="sans-serif" transform="matrix(1,0,0,1,-393,-176)" stroke-linecap="butt">
      <text x="943.8438" xml:space="preserve" y="564.1543" clip-path="url(#clipPath2)" stroke="none">String</text>
      <rect fill="none" x="939.25" width="45" height="30" y="545" clip-path="url(#clipPath2)"/>
    </g>
    <g fill="rgb(255,204,0)" text-rendering="geometricPrecision" shape-rendering="geometricPrecision" transform="matrix(1,0,0,1,-393,-176)" stroke="rgb(255,204,0)">
      <rect x="1007" width="98" height="26" y="272" clip-path="url(#clipPath2)" stroke="none"/>
      <rect x="1006" y="271" clip-path="url(#clipPath2)" fill="yellow" width="1" height="28" stroke="none"/>
      <rect x="1007" y="271" clip-path="url(#clipPath2)" fill="yellow" width="98" height="1" stroke="none"/>
      <rect x="1007" y="298" clip-path="url(#clipPath2)" fill="rgb(178,142,0)" width="99" height="1" stroke="none"/>
      <rect x="1105" y="271" clip-path="url(#clipPath2)" fill="rgb(178,142,0)" width="1" height="27" stroke="none"/>
    </g>
    <g font-size="13px" stroke-linecap="butt" transform="matrix(1,0,0,1,-393,-176)" text-rendering="geometricPrecision" font-family="sans-serif" shape-rendering="geometricPrecision" font-weight="bold" stroke-miterlimit="1.45">
      <text x="1013.5532" xml:space="preserve" y="288.5669" clip-path="url(#clipPath20)" stroke="none">foaf:Person</text>
    </g>
    <g fill="rgb(255,204,0)" text-rendering="geometricPrecision" shape-rendering="geometricPrecision" transform="matrix(1,0,0,1,-393,-176)" stroke="rgb(255,204,0)">
      <rect x="945" width="144" height="26" y="375" clip-path="url(#clipPath2)" stroke="none"/>
      <rect x="944" y="374" clip-path="url(#clipPath2)" fill="yellow" width="1" height="28" stroke="none"/>
      <rect x="945" y="374" clip-path="url(#clipPath2)" fill="yellow" width="144" height="1" stroke="none"/>
      <rect x="945" y="401" clip-path="url(#clipPath2)" fill="rgb(178,142,0)" width="145" height="1" stroke="none"/>
      <rect x="1089" y="374" clip-path="url(#clipPath2)" fill="rgb(178,142,0)" width="1" height="27" stroke="none"/>
    </g>
    <g font-size="13px" stroke-linecap="butt" transform="matrix(1,0,0,1,-393,-176)" text-rendering="geometricPrecision" font-family="sans-serif" shape-rendering="geometricPrecision" font-weight="bold" stroke-miterlimit="1.45">
      <text x="952.9197" xml:space="preserve" y="391.0669" clip-path="url(#clipPath21)" stroke="none">foaf:Organization</text>
    </g>
    <g fill="rgb(255,204,0)" text-rendering="geometricPrecision" shape-rendering="geometricPrecision" transform="matrix(1,0,0,1,-393,-176)" stroke="rgb(255,204,0)">
      <rect x="824.5" width="66" height="30" y="387" clip-path="url(#clipPath2)" stroke="none"/>
    </g>
    <g text-rendering="geometricPrecision" stroke-miterlimit="1.45" shape-rendering="geometricPrecision" font-family="sans-serif" transform="matrix(1,0,0,1,-393,-176)" stroke-linecap="butt">
      <text x="829.1025" xml:space="preserve" y="406.1543" clip-path="url(#clipPath2)" stroke="none">dateTime</text>
      <rect fill="none" x="824.5" width="66" height="30" y="387" clip-path="url(#clipPath2)"/>
    </g>
    <g fill="rgb(255,204,0)" text-rendering="geometricPrecision" shape-rendering="geometricPrecision" transform="matrix(1,0,0,1,-393,-176)" stroke="rgb(255,204,0)">
      <rect x="822.25" width="66" height="30" y="470" clip-path="url(#clipPath2)" stroke="none"/>
    </g>
    <g text-rendering="geometricPrecision" stroke-miterlimit="1.45" shape-rendering="geometricPrecision" font-family="sans-serif" transform="matrix(1,0,0,1,-393,-176)" stroke-linecap="butt">
      <text x="826.8525" xml:space="preserve" y="489.1543" clip-path="url(#clipPath2)" stroke="none">dateTime</text>
      <rect fill="none" x="822.25" width="66" height="30" y="470" clip-path="url(#clipPath2)"/>
      <path fill="none" d="M545.9807 494 L613.5035 494" clip-path="url(#clipPath2)"/>
      <path d="M621.5035 494 L609.5035 489 L612.5035 494 L609.5035 499 Z" clip-path="url(#clipPath2)" stroke="none"/>
      <text x="475.3525" xml:space="preserve" y="521.1543" clip-path="url(#clipPath2)" stroke="none">provo:wasGeneratedBy</text>
      <path fill="none" d="M573.4453 545.9976 L651.6885 513.7222" clip-path="url(#clipPath2)"/>
      <path fill="white" d="M665.5551 508.0023 L648.4761 508.5569 L653.0521 519.6502 Z" clip-path="url(#clipPath2)" stroke="none"/>
      <path fill="none" d="M665.5551 508.0023 L648.4761 508.5569 L653.0521 519.6502 Z" clip-path="url(#clipPath2)"/>
      <path fill="none" d="M788.5261 545.9976 L736.4261 515.5674" clip-path="url(#clipPath2)"/>
      <path fill="white" d="M723.4736 508.0023 L734.2635 521.2528 L740.3157 510.8908 Z" clip-path="url(#clipPath2)" stroke="none"/>
      <path fill="none" d="M723.4736 508.0023 L734.2635 521.2528 L740.3157 510.8908 Z" clip-path="url(#clipPath2)"/>
      <path fill="none" d="M699.5 479.9814 L699.5 456.9852" clip-path="url(#clipPath2)"/>
      <path fill="white" d="M699.5 441.9852 L693.5 457.9852 L705.5 457.9852 Z" clip-path="url(#clipPath2)" stroke="none"/>
      <path fill="none" d="M699.5 441.9852 L693.5 457.9852 L705.5 457.9852 Z" clip-path="url(#clipPath2)"/>
      <path fill="none" d="M715.8971 413.9924 L776.5443 362.1833" clip-path="url(#clipPath2)"/>
      <path d="M782.627 356.987 L770.2552 360.9797 L775.7839 362.8328 L776.7505 368.5831 Z" clip-path="url(#clipPath2)" stroke="none"/>
      <text x="663.3438" xml:space="preserve" y="389.6543" clip-path="url(#clipPath2)" stroke="none">provo:wasAssociatedWith</text>
      <path fill="none" d="M805.2529 329.0132 L837 258 L799 258 L799 321.0132" clip-path="url(#clipPath2)"/>
      <path d="M799 329.0132 L804 317.0132 L799 320.0132 L794 317.0132 Z" clip-path="url(#clipPath2)" stroke="none"/>
      <text x="753.9356" xml:space="preserve" y="246.7841" clip-path="url(#clipPath2)" stroke="none">provo:actedOnBehalfOf</text>
      <path fill="none" d="M891.3042 299.496 L842.2699 322.6064" clip-path="url(#clipPath2)"/>
      <path fill="white" d="M828.7014 329.0014 L845.7325 327.6075 L840.6165 316.7527 Z" clip-path="url(#clipPath2)" stroke="none"/>
      <path fill="none" d="M828.7014 329.0014 L845.7325 327.6075 L840.6165 316.7527 Z" clip-path="url(#clipPath2)"/>
      <path fill="none" d="M921 226.9832 L921 256.528" clip-path="url(#clipPath2)"/>
      <path fill="white" d="M921 271.528 L927 255.528 L915 255.528 Z" clip-path="url(#clipPath2)" stroke="none"/>
      <path fill="none" d="M921 271.528 L927 255.528 L915 255.528 Z" clip-path="url(#clipPath2)"/>
      <path fill="none" d="M939.5107 334.5433 L863.9544 339.0907" clip-path="url(#clipPath2)"/>
      <path fill="white" d="M848.9815 339.9919 L865.313 345.0198 L864.5922 333.0415 Z" clip-path="url(#clipPath2)" stroke="none"/>
      <path fill="none" d="M848.9815 339.9919 L865.313 345.0198 L864.5922 333.0415 Z" clip-path="url(#clipPath2)"/>
      <path fill="none" d="M653.9878 271 L669.0314 271" clip-path="url(#clipPath2)"/>
      <path fill="white" d="M684.0314 271 L668.0314 265 L668.0314 277 Z" clip-path="url(#clipPath2)" stroke="none"/>
      <path fill="none" d="M684.0314 271 L668.0314 265 L668.0314 277 Z" clip-path="url(#clipPath2)"/>
      <path fill="none" d="M539.903 227.0044 L571.2584 248.5265" clip-path="url(#clipPath2)"/>
      <path fill="white" d="M583.6254 257.015 L573.8293 243.0137 L567.0385 252.9073 Z" clip-path="url(#clipPath2)" stroke="none"/>
      <path fill="none" d="M583.6254 257.015 L573.8293 243.0137 L567.0385 252.9073 Z" clip-path="url(#clipPath2)"/>
      <path fill="none" d="M658.5977 227.0186 L633.0363 247.6096" clip-path="url(#clipPath2)"/>
      <path fill="white" d="M621.355 257.0196 L637.5791 251.6548 L630.0511 242.3098 Z" clip-path="url(#clipPath2)" stroke="none"/>
      <path fill="none" d="M621.355 257.0196 L637.5791 251.6548 L630.0511 242.3098 Z" clip-path="url(#clipPath2)"/>
      <path fill="none" d="M604 285.0273 L604 313.9881" clip-path="url(#clipPath2)"/>
      <path fill="white" d="M604 328.9881 L610 312.9881 L598 312.9881 Z" clip-path="url(#clipPath2)" stroke="none"/>
      <path fill="none" d="M604 328.9881 L610 312.9881 L598 312.9881 Z" clip-path="url(#clipPath2)"/>
      <path fill="none" d="M498.0873 285.0098 L571.4098 325.1559" clip-path="url(#clipPath2)"/>
      <path d="M578.4268 328.998 L570.3025 318.8493 L570.5327 324.6757 L565.5 327.6206 Z" clip-path="url(#clipPath2)" stroke="none"/>
      <text x="410.3438" xml:space="preserve" y="326.0625" clip-path="url(#clipPath2)" stroke="none">provo:wasDerivedFrom</text>
      <path fill="none" d="M477.5 480.0281 L477.5 343 L538.9991 343" clip-path="url(#clipPath2)"/>
      <path fill="white" d="M553.9991 343 L537.9991 337 L537.9991 349 Z" clip-path="url(#clipPath2)" stroke="none"/>
      <path fill="none" d="M553.9991 343 L537.9991 337 L537.9991 349 Z" clip-path="url(#clipPath2)"/>
      <path fill="none" d="M683.7621 413.9924 L625.6907 362.3058" clip-path="url(#clipPath2)"/>
      <path d="M619.7148 356.987 L625.3544 368.7001 L626.4376 362.9707 L632.0028 361.2303 Z" clip-path="url(#clipPath2)" stroke="none"/>
      <text x="643.0876" xml:space="preserve" y="370.495" clip-path="url(#clipPath2)" stroke="none">provo:used</text>
      <path fill="none" d="M640.9783 418.8081 L604 413 L604 364.9795" clip-path="url(#clipPath2)"/>
      <path d="M604 356.9795 L599 368.9795 L604 365.9795 L609 368.9795 Z" clip-path="url(#clipPath2)" stroke="none"/>
      <text x="564.6386" xml:space="preserve" y="407.1465" clip-path="url(#clipPath2)" stroke="none">provo:generated</text>
      <path fill="none" d="M654.0354 343 L740.9915 343" clip-path="url(#clipPath2)"/>
      <path d="M748.9915 343 L736.9915 338 L739.9915 343 L736.9915 348 Z" clip-path="url(#clipPath2)" stroke="none"/>
      <text x="630.8574" xml:space="preserve" y="321.1543" clip-path="url(#clipPath2)" stroke="none">provo:wasAttributedTo</text>
      <path fill="none" d="M593.6179 357.0076 L541 428 L633.0299 428" clip-path="url(#clipPath2)"/>
      <path d="M641.0299 428 L629.0299 423 L632.0299 428 L629.0299 433 Z" clip-path="url(#clipPath2)" stroke="none"/>
      <text x="502.3629" xml:space="preserve" y="447.955" clip-path="url(#clipPath2)" stroke="none">provo:wasGenratedBy</text>
      <path fill="none" d="M973.782 422.0023 L843.6053 363.1618" clip-path="url(#clipPath2)"/>
      <path fill="white" d="M829.9368 356.9836 L842.0452 369.0411 L846.9879 358.1063 Z" clip-path="url(#clipPath2)" stroke="none"/>
      <path fill="none" d="M829.9368 356.9836 L842.0452 369.0411 L846.9879 358.1063 Z" clip-path="url(#clipPath2)"/>
      <path fill="none" d="M1004.75 483.9834 L1004.75 465.0108" clip-path="url(#clipPath2)"/>
      <path fill="white" d="M1004.75 450.0108 L998.75 466.0108 L1010.75 466.0108 Z" clip-path="url(#clipPath2)" stroke="none"/>
      <path fill="none" d="M1004.75 450.0108 L998.75 466.0108 L1010.75 466.0108 Z" clip-path="url(#clipPath2)"/>
      <path fill="none" d="M970.9988 213 L1021 213" clip-path="url(#clipPath2)"/>
      <path d="M1029 213 L1017 208 L1020 213 L1017 218 Z" clip-path="url(#clipPath2)" stroke="none"/>
      <text x="980.0879" xml:space="preserve" y="204.1543" clip-path="url(#clipPath2)" stroke="none">orcid</text>
      <path fill="none" d="M1015.3755 512.0166 L1035.5461 538.6248" clip-path="url(#clipPath2)"/>
      <path d="M1040.379 545 L1037.1143 532.4166 L1034.942 537.8279 L1029.1453 538.4577 Z" clip-path="url(#clipPath2)" stroke="none"/>
      <text x="1042.9141" xml:space="preserve" y="532.3664" clip-path="url(#clipPath2)" stroke="none">codeRepository</text>
      <path fill="none" d="M995.0288 512.0166 L976.7124 538.4263" clip-path="url(#clipPath2)"/>
      <path d="M972.1532 545 L983.1006 537.9889 L977.2823 537.6046 L974.8834 532.2899 Z" clip-path="url(#clipPath2)" stroke="none"/>
      <text x="914.2477" xml:space="preserve" y="528.5916" clip-path="url(#clipPath2)" stroke="none">commitId</text>
      <path fill="none" d="M979.5022 285.5 L990.9851 285.5" clip-path="url(#clipPath2)"/>
      <path fill="white" d="M1005.9851 285.5 L989.9851 279.5 L989.9851 291.5 Z" clip-path="url(#clipPath2)" stroke="none"/>
      <path fill="none" d="M1005.9851 285.5 L989.9851 279.5 L989.9851 291.5 Z" clip-path="url(#clipPath2)"/>
      <path fill="none" d="M1015.5438 344.0186 L1016.127 359.0523" clip-path="url(#clipPath2)"/>
      <path fill="white" d="M1016.7085 374.041 L1022.0837 357.8205 L1010.0928 358.2857 Z" clip-path="url(#clipPath2)" stroke="none"/>
      <path fill="none" d="M1016.7085 374.041 L1022.0837 357.8205 L1010.0928 358.2857 Z" clip-path="url(#clipPath2)"/>
      <path fill="none" d="M758.0171 418.3706 L816.6061 408.7294" clip-path="url(#clipPath2)"/>
      <path d="M824.5 407.4304 L811.8474 404.4452 L815.6194 408.8917 L813.4711 414.3125 Z" clip-path="url(#clipPath2)" stroke="none"/>
      <text x="772.828" xml:space="preserve" y="434.3271" clip-path="url(#clipPath2)" stroke="none">startedAtTime</text>
      <path fill="none" d="M737.7911 442.0134 L814.7373 470.1735" clip-path="url(#clipPath2)"/>
      <path d="M822.25 472.9229 L812.6993 464.1034 L813.7982 469.8298 L809.2626 473.4943 Z" clip-path="url(#clipPath2)" stroke="none"/>
      <text x="774.1551" xml:space="preserve" y="451.0513" clip-path="url(#clipPath2)" stroke="none">endedAtTime</text>
    </g>
  </g>
</svg>
